{
  "urn" : "local:srwohl:im.data.global:im-data-global-ecology.global_evi_062018",
  "version" : "0.0.1",
  "adapterType" : "wcs",
  "localPath" : "im.data.global/resources/im-data-global-ecology.global_evi_062018",
  "geometry" : "S2(7199,3599){bbox=[-180.0 179.99999999999994 -90.0 89.99999999999997],proj=EPSG:4326}",
  "projectName" : "im.data.global",
  "localName" : "im-data-global-ecology.global_evi_062018",
  "type" : "NUMBER",
  "resourceTimestamp" : 1586865393391,
  "metadata" : {
    "im:keywords" : "vegetation index, EVI, chlorophyll\n\n",
    "dc:comment" : "Enhanced Vegetation Index (EVI) tends to be more sensitive to plant canopy differences like leaf area index (LAI), canopy structure, and plant phenology and stress than does \nNDVI which generally responds just to the amount of chlorophyll present. \nEVI product that minimizes canopy background variations and maintains sensitivity over dense vegetation conditions. \nThe EVI also uses the blue band to remove residual atmosphere contamination caused by smoke and sub-pixel thin cloud clouds. The MODIS EVI products \nare computed from atmospherically-corrected bi-directional surface reflectances that have been masked for water, clouds, heavy aerosols, and cloud shadows.\nScale factor :  0.0001\nDate: June-2018\n",
    "im:notes" : "",
    "dc:title" : "Enhanced vegetation index\n",
    "dc:url" : "https://doi.org/10.5067/MODIS/MOD13A2.006",
    "dc:creator" : "",
    "im:thematic-area" : "Ecology",
    "dc:originator" : "MODIS (or Moderate Resolution Imaging Spectroradiometer) is a key instrument aboard the Terra from NASA\n",
    "im:geographic-area" : "Global",
    "dc:source" : ""
  },
  "parameters" : {
    "wcsIdentifier" : "im-data-global-ecology__global_evi_062018",
    "serviceUrl" : "https://integratedmodelling.org/dev-geoserver/ows",
    "nodata" : "-3000.0",
    "wcsVersion" : "2.0.1"
  },
  "localPaths" : [ ],
  "history" : [ ],
  "notifications" : [ ],
  "attributes" : [ ],
  "spatialExtent" : {
    "east" : 179.99999999999994,
    "west" : -180.0,
    "north" : 89.99999999999997,
    "south" : -90.0,
    "gridResolution" : null,
    "gridUnit" : null
  },
  "dependencies" : null,
  "outputs" : null,
  "exportFormats" : { }
}