{
  "urn" : "local:rubencc:im.data.global:im-data-global-climate.worldclim_21_min_temp_30s_1970_2000_04",
  "version" : "0.0.1",
  "adapterType" : "wcs",
  "localPath" : "im.data.global/resources/im-data-global-climate.worldclim_21_min_temp_30s_1970_2000_04",
  "geometry" : "τ1{tend=946684800000,tstart=0,ttype=logical}S2(43199,21599){bbox=[-180.0 180.0 -90.0 90.0],proj=EPSG:4326}",
  "projectName" : "im.data.global",
  "localName" : "im-data-global-climate.worldclim_21_min_temp_30s_1970_2000_04",
  "type" : "NUMBER",
  "resourceTimestamp" : 1625489996815,
  "metadata" : {
    "im:keywords" : "global, climate, weather, Minimum temperature",
    "dc:comment" : "This is WorldClim version 2.1 climate data for 1970-2000. This version was released in January 2020.\r\nThere are monthly climate data for minimum temperature (°C).\r\nThe data is available at 30 seconds (~1 km2).\r\nFor \"time\", the month scope is inside the semantics data annotation.",
    "im:notes" : "",
    "dc:title" : "WorldClim Historical climate data version 2.1 data for 1970-2000 average temperature April",
    "dc:url" : "https://worldclim.org/data/worldclim21.html",
    "dc:creator" : "",
    "im:thematic-area" : "Physical and climatic",
    "dc:originator" : "Worldclim",
    "im:geographic-area" : "Global",
    "dc:source" : "Fick, S.E. and R.J. Hijmans, 2017. Worldclim 2: New 1-km spatial resolution climate surfaces for global land areas. International Journal of Climatology 37(12):4302-4315."
  },
  "parameters" : {
    "wcsIdentifier" : "im-data-global-climate__worldclim_21_min_temp_30s_1970_2000_04",
    "transform" : "",
    "serviceUrl" : "https://integratedmodelling.org/dev-geoserver/im-data-global-climate/wcs",
    "nodata" : "-3.4E38",
    "wcsVersion" : "2.0.1"
  },
  "localPaths" : [ ],
  "history" : [ ],
  "notifications" : [ ],
  "attributes" : [ ],
  "spatialExtent" : {
    "east" : 180.0,
    "west" : -180.0,
    "north" : 90.0,
    "south" : -90.0,
    "gridResolution" : null,
    "gridUnit" : null
  },
  "dependencies" : null,
  "outputs" : null,
  "categorizables" : [ ],
  "exportFormats" : { }
}