{
  "urn" : "local:akif.ortak:im.data.global:im-data-global-agriculture.crop_cucumberetc_production_earthstat",
  "version" : "0.0.1",
  "adapterType" : "wcs",
  "localPath" : "im.data.global/resources/im-data-global-agriculture.crop_cucumberetc_production_earthstat",
  "geometry" : "τ1{tend=978307200000,tscope=1.0,tstart=946684800000,ttype=logical,tunit=year}S2(4319,2159){bbox=[-180.0 179.99999999997954 -90.0 89.99999999998977],proj=EPSG:4326}",
  "projectName" : "im.data.global",
  "localName" : "im-data-global-agriculture.crop_cucumberetc_production_earthstat",
  "type" : "NUMBER",
  "resourceTimestamp" : 1613325553860,
  "metadata" : {
    "im:keywords" : "Agriculture,Yield",
    "dc:comment" : "Croplands cover ~15 million km2 of the planet and provide the bulk of the food and fiber essential to human well-being. Most global land cover data sets from satellites group croplands into just a few categories, thereby excluding information that is critical for answering key questions ranging from biodiversity conservation to food security to biogeochemical cycling. Information about agricultural land use practices like crop selection, yield, and fertilizer use is even more limited. Here we present land use data sets created by combining national, state, and county level census statistics with a recently updated global data set of croplands on a 5 minute by 5 minute (~10 km by 10 km) latitude/longitude grid. The resulting land use data sets depict circa the year 2000 the area (harvested) and yield of 175 distinct crops of the world.\r\n\r\n",
    "im:notes" : "",
    "dc:title" : "Earthstat Harvested Area and Yield for 175 Crops",
    "dc:url" : "http://www.earthstat.org/harvested-area-yield-175-crops/",
    "dc:creator" : "",
    "im:thematic-area" : "Agriculture",
    "dc:originator" : "",
    "im:geographic-area" : "Global",
    "dc:source" : "Monfreda, C., N. Ramankutty, and J. A. Foley (2008), Farming the planet: 2. Geographic distribution of crop areas, yields, physiological types, and net primary production in the year 2000, Global Biogeochem. Cycles, 22, GB1022, doi: 10.1029/2007GB002947.\r\n\r\n"
  },
  "parameters" : {
    "wcsIdentifier" : "im-data-global-agriculture__crop_cucumberetc_Production_earthstat",
    "transform" : "self/1000",
    "serviceUrl" : "https://www.integratedmodelling.org/dev-geoserver/ows",
    "wcsVersion" : "2.0.1"
  },
  "localPaths" : [ ],
  "history" : [ ],
  "notifications" : [ ],
  "attributes" : [ ],
  "spatialExtent" : {
    "east" : 179.99999999997954,
    "west" : -180.0,
    "north" : 89.99999999998977,
    "south" : -90.0,
    "gridResolution" : null,
    "gridUnit" : null
  },
  "dependencies" : null,
  "outputs" : null,
  "categorizables" : [ ],
  "exportFormats" : { }
}