{
  "urn" : "local:rubencc:im.data.global:im-data-global-climate.mean_sea_annual_surface_2015_v1",
  "version" : "0.0.1",
  "adapterType" : "wcs",
  "localPath" : "im.data.global/resources/im-data-global-climate.mean_sea_annual_surface_2015_v1",
  "geometry" : "τ1{tend=1356998400000,tstart=1230768000000,ttype=logical}S2(4319,2159){bbox=[-180.0 179.99856 -90.0 89.99928],proj=EPSG:4326}",
  "projectName" : "im.data.global",
  "localName" : "im-data-global-climate.mean_sea_annual_surface_2015_v1",
  "type" : "NUMBER",
  "resourceTimestamp" : 1626431766792,
  "metadata" : {
    "im:keywords" : "Annual, Sea, Surface, Temperature",
    "dc:comment" : "This dataset shows the global distribution of mean annual sea surface temperature, averaged for the period from 2009 to 2013. \r\nIt was created using remotely-sensed images from NASA's (National Aeronautics and Space Administration) Ocean Color database",
    "im:notes" : "",
    "dc:title" : "Mean Annual Sea Surface Temperature 2009-2013 (2015)",
    "dc:url" : "https://data.unep-wcmc.org/datasets/36",
    "dc:creator" : "",
    "im:thematic-area" : "Physical and climatic",
    "dc:originator" : "UN Environment Programme World Conservation Monitoring Centr",
    "im:geographic-area" : "Global",
    "dc:source" : ""
  },
  "parameters" : {
    "wcsIdentifier" : "im-data-global-climate__mean_sea_annual_surface_2015_v1",
    "transform" : "",
    "serviceUrl" : "https://integratedmodelling.org/dev-geoserver/im-data-global-climate/wcs",
    "nodata" : "-3.4028230607370965E38",
    "wcsVersion" : "2.0.1"
  },
  "localPaths" : [ ],
  "history" : [ ],
  "notifications" : [ ],
  "attributes" : [ ],
  "spatialExtent" : {
    "east" : 179.99856,
    "west" : -180.0,
    "north" : 89.99928,
    "south" : -90.0,
    "gridResolution" : null,
    "gridUnit" : null
  },
  "dependencies" : null,
  "outputs" : null,
  "categorizables" : [ ],
  "exportFormats" : { }
}