{
  "urn" : "local:akif.ortak:im.data.global:im-data-global-conservation.intact_forest_landscapes_2016",
  "version" : "0.0.1",
  "adapterType" : "wcs",
  "localPath" : "im.data.global/resources/im-data-global-conservation.intact_forest_landscapes_2016",
  "geometry" : "τ1{tend=1483228800000,tstart=1451606400000,ttype=logical}S2(42281,15083){bbox=[-172.7031402582163 178.2374597417837 -55.46498932561683 69.73221067438317],proj=EPSG:4326}",
  "projectName" : "im.data.global",
  "localName" : "im-data-global-conservation.intact_forest_landscapes_2016",
  "type" : "NUMBER",
  "resourceTimestamp" : 1605796381641,
 "metadata" : {
    "im:keywords" : "conservation, forest",
    "dc:comment" : "The Intact Forest Landscapes (IFL) data set identifies unbroken expanses of natural ecosystems within the zone of forest extent that show no signs of significant human activity and are large enough that all native biodiversity, including viable populations of wide-ranging species, could be maintained. To map IFL areas, a set of criteria was developed and designed to be globally applicable and easily replicable, the latter to allow for repeated assessments over time as well as verification. IFL areas were defined as unfragmented landscapes, at least 50,000 hectares in size, and with a minimum width of 10 kilometers. These were then mapped from Landsat satellite imagery for the year 2000.\n\nChanges in the extent of IFLs were identified from 2000-2013 and from 2013-2016 within the original year 2000 IFL boundary using the global wall-to-wall Landsat image composite for years 2013, 2016, and the global forest cover loss dataset (Hansen et al., 2013). Areas identified as “reduction in extent” met the IFL criteria in 2000, but no longer met the criteria in 2016. The main causes of change were clearing for agriculture and tree plantations, industrial activity such as logging and mining, fragmentation due to infrastructure and new roads, and fires assumed to be caused by humans.\n\nThis data can be used to assess forest intactness, alteration, and degradation at global and regional scales.",
    "im:notes" : "",
    "dc:title" : "Intact Forest Landscapes (2016)",
    "dc:url" : "https://data.globalforestwatch.org/datasets/intact-forest-landscapes-2013-1",
    "dc:creator" : "",
    "im:thematic-area" : "Conservation",
    "dc:originator" : "GlobalForestWatch",
    "im:geographic-area" : "Global",
    "dc:source" : "Intact Forest Landscapes-Greenpeace, University of Maryland, World Resources Institute and Transparent World. “Intact Forest Landscapes. 2000/2013/2016” Accessed through Global Forest Watch on [date]. www.globalforestwatch.org\n"
  },
  "parameters" : {
    "wcsIdentifier" : "im-data-global-conservation__intact_forest_landscapes_2016",
    "serviceUrl" : "https://www.integratedmodelling.org/dev-geoserver/ows",
    "nodata" : "-32768.0",
    "wcsVersion" : "2.0.1"
  },
  "localPaths" : [ ],
  "history" : [ ],
  "notifications" : [ ],
  "attributes" : [ ],
  "spatialExtent" : {
    "east" : 178.2374597417837,
    "west" : -172.7031402582163,
    "north" : 69.73221067438317,
    "south" : -55.46498932561683,
    "gridResolution" : null,
    "gridUnit" : null
  },
  "dependencies" : null,
  "outputs" : null,
  "exportFormats" : { }
}
