{
  "urn" : "local:srwohl:im.data.global:im-data-global-landcover.cci_lc_300m_2010",
  "version" : "0.0.1",
  "adapterType" : "wcs",
  "localPath" : "im.data.global/resources/im-data-global-landcover.cci_lc_300m_2010",
  "geometry" : "τ1{tend=1293840000000,tstart=1262304000000,ttype=logical}S2(129599,64799){bbox=[-180.0 180.00000000002876 -90.00000000001438 90.0],proj=EPSG:4326}",
  "projectName" : "im.data.global",
  "localName" : "im-data-global-landcover.cci_lc_300m_2010",
  "type" : "NUMBER",
  "resourceTimestamp" : 1619610644576,
  "metadata" : {
    "im:keywords" : "Land cover",
    "dc:comment" : "The ESA-CCI project has generated annual global land cover maps at 300 m spatial resolution, initially covering the years 1992 to present year and with extension of the time series underway to cover years following 2018.",
    "im:notes" : "",
    "dc:title" : "European Space Agency Climate Change Initaitive (ESA-CCI) land cover, v.2.0.7",
    "dc:url" : "https://www.esa-landcover-cci.org/, https://climate.esa.int/en/projects/land-cover/about/",
    "dc:creator" : "",
    "im:thematic-area" : "Landcover",
    "dc:originator" : "European Space Agency Climate Change Initiative - Land Cover led by UCLouvain (2017)",
    "im:geographic-area" : "Global",
    "dc:source" : "ESA. Land Cover CCI Product User Guide Version 2. Tech. Rep. (2017). Available at: maps.elie.ucl.ac.be/CCI/viewer/download/ESACCI-LC-Ph2-PUGv2_2.0.pdf"
  },
  "parameters" : {
    "wcsIdentifier" : "im-data-global-landcover__cci_lc_300m_2010",
    "serviceUrl" : "https://integratedmodelling.org/dev-geoserver/ows",
    "nodata" : "0.0",
    "wcsVersion" : "2.0.1"
  },
  "localPaths" : [ ],
  "history" : [ ],
  "notifications" : [ ],
  "attributes" : [ ],
  "spatialExtent" : {
    "east" : 180.00000000002876,
    "west" : -180.0,
    "north" : 90.0,
    "south" : -90.00000000001438,
    "gridResolution" : null,
    "gridUnit" : null
  },
  "dependencies" : null,
  "outputs" : null,
  "categorizables" : [ ],
  "exportFormats" : { }
}