{
  "urn" : "local:akif.ortak:im.data.global:im-data-global-ecology.npp_2013_01_01",
  "version" : "0.0.1",
  "adapterType" : "wcs",
  "localPath" : "im.data.global/resources/im-data-global-ecology.npp_2013_01_01",
  "geometry" : "τ1{tend=1388534400000,tstart=1356998400000,ttype=logical}S2(86399,35999){bbox=[-179.99999998383547 179.9999999839433 -59.99999999465676 89.99999999191773],proj=EPSG:4326}",
  "projectName" : "im.data.global",
  "localName" : "im-data-global-ecology.npp_2013_01_01",
  "type" : "NUMBER",
  "resourceTimestamp" : 1606746653997,
  "metadata" : {
    "im:keywords" : "Ecology,PrimaryProduction",
    "dc:comment" : "The MYD17A3HGF Version 6 product provides information about annual Net Primary Production (NPP) at 500 meter (m) pixel resolution. Annual NPP is derived from the sum of all 8-day Net Photosynthesis (PSN) products (MYD17A2H) from the given year. The PSN value is the difference of the Gross Primary Productivity (GPP) and the Maintenance Respiration (MR).\r\n\r\nThe MYD17A3HGF will be generated at the end of each year when the entire yearly 8-day MYD15A2H is available. Hence, the gap-filled MYD17A3HGF is the improved MYD17, which has cleaned the poor-quality inputs from 8-day Leaf Area Index and Fraction of Photosynthetically Active Radiation (FPAR/LAI) based on the Quality Control (QC) label for every pixel. If any LAI/FPAR pixel did not meet the quality screening criteria, its value is determined through linear interpolation. However, users cannot get MYD17A3HGF in near-real time because it will be generated only at the end of a given year.\r\n\r\n",
    "im:notes" : "",
    "dc:title" : "MODIS/Aqua Net Primary Production Gap-Filled Yearly L4 Global 500 m ",
    "dc:url" : "https://lpdaac.usgs.gov/products/myd17a3hgfv006/",
    "dc:creator" : "",
    "im:thematic-area" : "Ecology",
    "dc:originator" : "The U.S. National Aeronautics and Space Administration (NASA)",
    "im:geographic-area" : "Global",
    "dc:source" : "Running, S., Zhao, M. (2019). MYD17A3HGF MODIS/Aqua Net Primary Production Gap-Filled Yearly L4 Global 500 m SIN Grid V006 [Data set]. NASA EOSDIS Land Processes DAAC. Accessed 2020-06-24 from https://doi.org/10.5067/MODIS/MYD17A3HGF.006"
  },
  "parameters" : {
    "wcsIdentifier" : "im-data-global-ecology__NPP_2013_01_01",
    "serviceUrl" : "https://www.integratedmodelling.org/dev-geoserver/ows",
    "nodata" : "-32768.0",
    "transform" : "self*0.001",
    "wcsVersion" : "2.0.1"
  },
  "localPaths" : [ ],
  "history" : [ ],
  "notifications" : [ ],
  "attributes" : [ ],
  "spatialExtent" : {
    "east" : 179.9999999839433,
    "west" : -179.99999998383547,
    "north" : 89.99999999191773,
    "south" : -59.99999999465676,
    "gridResolution" : null,
    "gridUnit" : null
  },
  "dependencies" : null,
  "outputs" : null,
  "exportFormats" : { }
}