{
  "urn" : "local:akif.ortak:im.data.global:im-data-global-agriculture.barl_p_a_spam2010v2r0",
  "version" : "0.0.1",
  "adapterType" : "wcs",
  "localPath" : "im.data.global/resources/im-data-global-agriculture.barl_p_a_spam2010v2r0",
  "geometry" : "τ1{tend=1293840000000,tscope=1.0,tstart=1262304000000,ttype=logical,tunit=year}S2(4319,2159){bbox=[-180.0 179.99856 -89.99928 90.0],proj=EPSG:4326}",
  "projectName" : "im.data.global",
  "localName" : "im-data-global-agriculture.barl_p_a_spam2010v2r0",
  "type" : "NUMBER",
  "resourceTimestamp" : 1606745052945,
  "metadata" : {
    "im:keywords" : "",
    "dc:comment" : "",
    "im:notes" : "",
    "dc:title" : "",
    "dc:url" : "",
    "dc:creator" : "",
    "im:thematic-area" : "",
    "dc:originator" : "",
    "im:geographic-area" : "",
    "dc:source" : ""
  },
  "parameters" : {
    "wcsIdentifier" : "im-data-global-agriculture__BARL_P_A_spam2010V2r0",
    "serviceUrl" : "https://www.integratedmodelling.org/dev-geoserver/ows",
    "nodata" : "-1.0",
    "wcsVersion" : "2.0.1",
    "transform" : "self/1000"
  },
  "localPaths" : [ ],
  "history" : [ ],
  "notifications" : [ ],
  "attributes" : [ ],
  "spatialExtent" : {
    "east" : 179.99856,
    "west" : -180.0,
    "north" : 90.0,
    "south" : -89.99928,
    "gridResolution" : null,
    "gridUnit" : null
  },
  "dependencies" : null,
  "outputs" : null,
  "exportFormats" : { }
}