{
  "urn" : "local:srwohl:im.data.global:im-data-global-soil.isric_bdticm_m_250m_ll",
  "version" : "0.0.1",
  "adapterType" : "wcs",
  "localPath" : "im.data.global/resources/im-data-global-soil.isric_bdticm_m_250m_ll",
  "geometry" : "S2(172799,67199){bbox=[-180.0 179.99994240015582 -56.00081039406058 83.99916720600001],proj=EPSG:4326}",
  "projectName" : "im.data.global",
  "localName" : "im-data-global-soil.isric_bdticm_m_250m_ll",
  "type" : "NUMBER",
  "resourceTimestamp" : 1595431790790,
  "metadata" : {
    "im:keywords" : "Depth to bedrock, Soil depth",
    "dc:comment" : "\"SoilGrids is a system for automated soil mapping based on state-of-the-art spatial predictions methods. SoilGrids predictions are based on globally fitted models using soil profile and environmental covariate data. Currently, SoilGrids.org serves a collection of updatable soil property and class maps of the world at 1 km / 250 m spatial resolutions produced using automated soil mapping based on machine learning algorithms. SoilGrids.org aims at becoming OpenStreetMap and/or OpenWeatherMap for soil data. SoilGrids data is available publicly under the Open DataBase License.\r\n\r\nFor the most up to date version of SoilGrids refer to: https://files.isric.org/soilgrids/data/recent/\" (https://www.isric.org/explore/soilgrids)",
    "im:notes" : "",
    "dc:title" : "Absolute depth to bedrock (cm), SoilGrids 250m, 2017 version",
    "dc:url" : "https://www.soilgrids.org",
    "dc:creator" : "",
    "im:thematic-area" : "Hydrology",
    "dc:originator" : "International Soil Reference and Information Centre (ISRIC)",
    "im:geographic-area" : "Global",
    "dc:source" : "T. Hengl, J. Mendes de Jesus, G.B.M. Heuvelink, M. Ruiperez Gonzalez, M. Kilibarda, A. Blagotić, et al. 2017. SoilGrids250m: global gridded soil information based on machine learning. PLoS One, 12(2):e0169748."
  },
  "parameters" : {
    "wcsIdentifier" : "im-data-global-soil__isric_bdticm_M_250m_ll",
    "serviceUrl" : "https://integratedmodelling.org/dev-geoserver/ows",
    "nodata" : "-32768.0",
    "wcsVersion" : "2.0.1"
  },
  "localPaths" : [ ],
  "history" : [ ],
  "notifications" : [ ],
  "attributes" : [ ],
  "spatialExtent" : {
    "east" : 179.99994240015582,
    "west" : -180.0,
    "north" : 83.99916720600001,
    "south" : -56.00081039406058,
    "gridResolution" : null,
    "gridUnit" : null
  },
  "dependencies" : null,
  "outputs" : null,
  "exportFormats" : { }
}