{
  "urn" : "local:srwohl:im.data.global:im-data-global-climate.aridity_index_1970_2000",
  "version" : "0.0.1",
  "adapterType" : "wcs",
  "localPath" : "im.data.global/resources/im-data-global-climate.aridity_index_1970_2000",
  "geometry" : "S2(43199,17999){bbox=[-180.0 179.99999999999983 -59.99999999999994 90.0],proj=EPSG:4326}",
  "projectName" : "im.data.global",
  "localName" : "im-data-global-climate.aridity_index_1970_2000",
  "type" : "NUMBER",
  "resourceTimestamp" : 1619603153711,
  "metadata" : {
    "im:keywords" : "Aridity",
    "dc:comment" : "Aridity Index represents the ratio between precipitation and ET0, thus rainfall over vegetation water demand (aggregated on annual basis).\nUnder this formulation, Aridity Index values increase for more humid conditions, and decrease with more arid conditions.\nData resolution is 30 arc seconds or ~ 1 km at the equator.",
    "im:notes" : "",
    "dc:title" : "The Global Aridity Index",
    "dc:url" : "https://cgiarcsi.community/data/global-aridity-and-pet-database/, https://figshare.com/articles/Global_Aridity_Index_and_Potential_Evapotranspiration_ET0_Climate_Database_v2/7504448/3",
    "dc:creator" : "Antonio Trabucco\nRobert Zomer",
    "im:thematic-area" : "Soil",
    "dc:originator" : "CGIAR-CSI",
    "im:geographic-area" : "Global",
    "dc:source" : "Trabucco, A., and Zomer, R.J. 2018. Global Aridity Index and Potential Evapo-Transpiration (ET0) Climate Database v2. CGIAR Consortium for Spatial Information(CGIAR-CSI)."
  },
  "parameters" : {
    "wcsIdentifier" : "im-data-global-climate__aridity_index_1970_2000",
    "serviceUrl" : "https://integratedmodelling.org/dev-geoserver/ows",
    "nodata" : "-2.147483647E9",
    "wcsVersion" : "2.0.1"
  },
  "localPaths" : [ ],
  "history" : [ ],
  "notifications" : [ ],
  "attributes" : [ ],
  "spatialExtent" : {
    "east" : 179.99999999999983,
    "west" : -180.0,
    "north" : 90.0,
    "south" : -59.99999999999994,
    "gridResolution" : null,
    "gridUnit" : null
  },
  "dependencies" : null,
  "outputs" : null,
  "categorizables" : [ ],
  "exportFormats" : { }
}