{
  "urn" : "local:ferdinando.villa:im.data.global:faostat.crop.provisioning",
  "version" : "0.0.1",
  "adapterType" : "xls",
  "localPath" : "im.data.global/resources/faostat.crop.provisioning.v0.0.1",
  "geometry" : "s1(250){bbox=[-180.00012728 180.0001272720001 -89.90012879899996 83.62294973200005],proj=EPSG:4326}",
  "projectName" : "im.data.global",
  "localName" : "faostat.crop.provisioning",
  "type" : null,
  "resourceTimestamp" : 1619605272296,
  "metadata" : {
    "im:keywords" : "crop, production",
    "dc:comment" : "This dataset was created extracting information from the FAOSTAT database for pollinators-dependent crops and using the World Bank official exchange rate for conversion in 2015. \r\nThe final dataset combines information, by crop and by country, for the time series 1992-2018, on:\r\n- the biophysical volume of production, expressed in tonnes of production (Production quantity), and \r\n- the prices, expressed in USD at 2015 constant price per tonne. \r\n\r\nSee notes for further information  \r\n",
    "im:notes" : "Final prices in USD@2015 in USD are obtained as follows:\r\n\r\nProducers prices per tonne expressed in local currency (LCU/ tonnes) are inflated at 2015 prices using the official deflator for the agriculture sector and later converted into USD by using the average exchange rate currency with US$ in the year 2015 from the World Bank official figures.\r\n\r\nProduction of countries that split in different countries from 1992 were also reallocated proportionally to the land arable extent of the original country compared to the originating split countries.\r\n\r\nThe crops so far considered are: barley, maize, potato, rice, sugarbeet, sugarcane, \tsunflower, wheat, rye, soybean,\t rapeseed, palm oil\r\n",
    "dc:title" : "Production and prices for ecosystem contribution to crop production",
    "dc:url" : "http://www.fao.org/faostat/en/#data https://databank.worldbank.org/source/global-economic-monitor-(gem)",
    "dc:creator" : "",
    "im:thematic-area" : "Agriculture",
    "dc:originator" : "FAOSTAT and World Bank",
    "im:geographic-area" : "Global",
    "dc:source" : "FAOSTAT:\r\n1. Production quantity - Element code: 5510\r\n2. Producer Price (LCU/tonne) - Element Code: 5530\r\n3. Value Added Deflator (Agriculture, forestry and fishery) - Item code: 22026\r\n\r\nWorld Bank:\r\n1. Official exchange rate, LCU per USD, period average for 2015 - https://databank.worldbank.org/source/global-economic-monitor-(gem)\r\n"
  },
  "parameters" : {
    "column.sugarbeet_price.searchable" : "false",
    "column.rapeseed_price.index" : "25",
    "column.barley.searchable" : "false",
    "column.maize_green_price.searchable" : "false",
    "column.rapeseed_price.mapping" : "",
    "headers.rows" : "false",
    "column.oil_palm.size" : "-1",
    "column.soybean.mapping" : "",
    "column.rapeseed.mapping" : "",
    "column.oil_palm_price.index" : "27",
    "headers.columns" : "true",
    "column.rye.index" : "10",
    "column.sunflower_price.index" : "21",
    "format.trimspaces" : "false",
    "column.maize_price.mapping" : "",
    "column.potato_price.size" : "-1",
    "column.sugarbeet.searchable" : "false",
    "column.maize_green.size" : "-1",
    "column.year.mapping" : "",
    "column.rice.index" : "5",
    "column.rice.searchable" : "false",
    "column.rye_price.mapping" : "",
    "column.maize_price.index" : "16",
    "column.sunflower.size" : "-1",
    "column.maize_price.searchable" : "false",
    "column.gid.searchable" : "false",
    "column.sugarbeet.index" : "6",
    "column.soybean.size" : "-1",
    "column.sunflower.mapping" : "",
    "column.rye.mapping" : "",
    "column.potato.mapping" : "",
    "column.rice.mapping" : "",
    "column.sunflower.searchable" : "false",
    "column.soybean_price.searchable" : "false",
    "column.rice_price.mapping" : "",
    "column.wheat.mapping" : "",
    "column.rye_price.index" : "23",
    "column.maize_green.mapping" : "",
    "column.potato_price.searchable" : "false",
    "column.sunflower.index" : "8",
    "column.oil_palm.mapping" : "",
    "column.rice.size" : "-1",
    "column.rye.searchable" : "false",
    "column.soybean.searchable" : "false",
    "column.barley_price.mapping" : "",
    "column.maize_price.size" : "-1",
    "rows.total" : "5002",
    "column.maize.index" : "3",
    "column.year.index" : "1",
    "column.gid.size" : "-1",
    "column.potato.searchable" : "false",
    "format.lineseparator" : "",
    "column.gid.index" : "0",
    "column.sugarbeet.size" : "-1",
    "column.soybean.index" : "11",
    "column.rice_price.searchable" : "false",
    "column.rapeseed_price.searchable" : "false",
    "column.rye.size" : "-1",
    "format.nodata" : "",
    "column.maize_green.searchable" : "false",
    "column.rye_price.searchable" : "false",
    "column.barley.index" : "2",
    "column.sugarcane_price.index" : "20",
    "column.sugarbeet_price.mapping" : "",
    "column.soybean_price.mapping" : "",
    "column.oil_palm.searchable" : "false",
    "column.barley_price.searchable" : "false",
    "column.year.searchable" : "false",
    "column.wheat_price.size" : "-1",
    "column.barley.mapping" : "",
    "column.sugarcane_price.searchable" : "false",
    "column.sunflower_price.size" : "-1",
    "column.sunflower_price.mapping" : "",
    "column.wheat.size" : "-1",
    "rows.data" : "5001",
    "column.barley_price.index" : "15",
    "format.quote" : "\"",
    "column.sugarcane_price.size" : "-1",
    "column.maize.mapping" : "",
    "column.sugarcane.mapping" : "",
    "column.sugarbeet_price.size" : "-1",
    "column.wheat_price.searchable" : "false",
    "format.encoding" : "",
    "column.sugarcane.size" : "-1",
    "resource.type" : "csv",
    "column.oil_palm.index" : "14",
    "column.oil_palm_price.searchable" : "false",
    "column.sugarbeet_price.index" : "19",
    "column.sugarcane_price.mapping" : "",
    "column.sugarbeet.mapping" : "",
    "column.year.size" : "-1",
    "column.maize_green.index" : "13",
    "column.barley_price.size" : "-1",
    "column.wheat_price.mapping" : "",
    "time.encoding" : "year->YEAR",
    "column.rapeseed_price.size" : "-1",
    "column.potato_price.index" : "17",
    "column.rapeseed.size" : "-1",
    "column.wheat.index" : "9",
    "column.sugarcane.searchable" : "false",
    "column.gid.mapping" : "",
    "column.sunflower_price.searchable" : "false",
    "space.encoding" : "gid->local:ferdinando.villa:im.data.global:admin.countries.un#gid",
    "column.wheat.searchable" : "false",
    "column.potato_price.mapping" : "",
    "column.potato.index" : "4",
    "format.source" : "DEFAULT",
    "column.maize_green_price.index" : "26",
    "format.delimiter" : ",",
    "columns.total" : "28",
    "column.oil_palm_price.size" : "-1",
    "column.maize_green_price.size" : "-1",
    "column.rapeseed.searchable" : "false",
    "column.maize.searchable" : "false",
    "column.wheat_price.index" : "22",
    "column.oil_palm_price.mapping" : "",
    "column.sugarcane.index" : "7",
    "column.soybean_price.index" : "24",
    "column.rice_price.index" : "18",
    "column.soybean_price.size" : "-1",
    "column.potato.size" : "-1",
    "column.maize_green_price.mapping" : "",
    "column.maize.size" : "-1",
    "column.rye_price.size" : "-1",
    "resource.file" : "faostat.crop.provisioning.csv",
    "column.rice_price.size" : "-1",
    "column.rapeseed.index" : "12",
    "column.barley.size" : "-1",
    "columns.data" : "28"
  },
  "localPaths" : "im.data.global/resources/faostat.crop.provisioning.v0.0.1/faostat.crop.provisioning.csv",
  "history" : [ ],
  "notifications" : [ ],
  "attributes" : [ {
    "name" : "gid",
    "type" : "TEXT",
    "key" : false,
    "optional" : true,
    "exampleValue" : null,
    "index" : 0
  }, {
    "name" : "year",
    "type" : "NUMBER",
    "key" : false,
    "optional" : true,
    "exampleValue" : null,
    "index" : 1
  }, {
    "name" : "barley",
    "type" : "NUMBER",
    "key" : false,
    "optional" : true,
    "exampleValue" : null,
    "index" : 2
  }, {
    "name" : "maize",
    "type" : "NUMBER",
    "key" : false,
    "optional" : true,
    "exampleValue" : null,
    "index" : 3
  }, {
    "name" : "potato",
    "type" : "NUMBER",
    "key" : false,
    "optional" : true,
    "exampleValue" : null,
    "index" : 4
  }, {
    "name" : "rice",
    "type" : "NUMBER",
    "key" : false,
    "optional" : true,
    "exampleValue" : null,
    "index" : 5
  }, {
    "name" : "sugarbeet",
    "type" : "NUMBER",
    "key" : false,
    "optional" : true,
    "exampleValue" : null,
    "index" : 6
  }, {
    "name" : "sugarcane",
    "type" : "NUMBER",
    "key" : false,
    "optional" : true,
    "exampleValue" : null,
    "index" : 7
  }, {
    "name" : "sunflower",
    "type" : "NUMBER",
    "key" : false,
    "optional" : true,
    "exampleValue" : null,
    "index" : 8
  }, {
    "name" : "wheat",
    "type" : "NUMBER",
    "key" : false,
    "optional" : true,
    "exampleValue" : null,
    "index" : 9
  }, {
    "name" : "rye",
    "type" : "NUMBER",
    "key" : false,
    "optional" : true,
    "exampleValue" : null,
    "index" : 10
  }, {
    "name" : "soybean",
    "type" : "NUMBER",
    "key" : false,
    "optional" : true,
    "exampleValue" : null,
    "index" : 11
  }, {
    "name" : "rapeseed",
    "type" : "NUMBER",
    "key" : false,
    "optional" : true,
    "exampleValue" : null,
    "index" : 12
  }, {
    "name" : "maize_green",
    "type" : "NUMBER",
    "key" : false,
    "optional" : true,
    "exampleValue" : null,
    "index" : 13
  }, {
    "name" : "oil_palm",
    "type" : "NUMBER",
    "key" : false,
    "optional" : true,
    "exampleValue" : null,
    "index" : 14
  }, {
    "name" : "barley_price",
    "type" : "NUMBER",
    "key" : false,
    "optional" : true,
    "exampleValue" : null,
    "index" : 15
  }, {
    "name" : "maize_price",
    "type" : "NUMBER",
    "key" : false,
    "optional" : true,
    "exampleValue" : null,
    "index" : 16
  }, {
    "name" : "potato_price",
    "type" : "NUMBER",
    "key" : false,
    "optional" : true,
    "exampleValue" : null,
    "index" : 17
  }, {
    "name" : "rice_price",
    "type" : "NUMBER",
    "key" : false,
    "optional" : true,
    "exampleValue" : null,
    "index" : 18
  }, {
    "name" : "sugarbeet_price",
    "type" : "NUMBER",
    "key" : false,
    "optional" : true,
    "exampleValue" : null,
    "index" : 19
  }, {
    "name" : "sugarcane_price",
    "type" : "NUMBER",
    "key" : false,
    "optional" : true,
    "exampleValue" : null,
    "index" : 20
  }, {
    "name" : "sunflower_price",
    "type" : "NUMBER",
    "key" : false,
    "optional" : true,
    "exampleValue" : null,
    "index" : 21
  }, {
    "name" : "wheat_price",
    "type" : "NUMBER",
    "key" : false,
    "optional" : true,
    "exampleValue" : null,
    "index" : 22
  }, {
    "name" : "rye_price",
    "type" : "NUMBER",
    "key" : false,
    "optional" : true,
    "exampleValue" : null,
    "index" : 23
  }, {
    "name" : "soybean_price",
    "type" : "NUMBER",
    "key" : false,
    "optional" : true,
    "exampleValue" : null,
    "index" : 24
  }, {
    "name" : "rapeseed_price",
    "type" : "NUMBER",
    "key" : false,
    "optional" : true,
    "exampleValue" : null,
    "index" : 25
  }, {
    "name" : "maize_green_price",
    "type" : "NUMBER",
    "key" : false,
    "optional" : true,
    "exampleValue" : null,
    "index" : 26
  }, {
    "name" : "oil_palm_price",
    "type" : "NUMBER",
    "key" : false,
    "optional" : true,
    "exampleValue" : null,
    "index" : 27
  } ],
  "spatialExtent" : null,
  "dependencies" : null,
  "outputs" : null,
  "categorizables" : "Column header",
  "exportFormats" : { }
}